{"name":"test009","id":"in.reqres.reqresinfo.UserCURDTestWithSteps:test009","testCaseName":"in.reqres.reqresinfo.UserCURDTestWithSteps","testSteps":[{"number":1,"description":"Getting All Users from Page 2","duration":143,"startTime":"2022-06-21T11:27:12.710+01:00[Europe/London]","result":"SUCCESS","precondition":false,"children":[{"number":2,"description":"GET https://reqres.in/api/users?page\u003d2\r\r","duration":0,"startTime":"2022-06-21T11:27:12.853+01:00[Europe/London]","result":"SUCCESS","restQuery":{"method":"GET","path":"https://reqres.in/api/users?page\u003d2\r\r","content":"\r","contentType":"application/json","requestHeaders":"Accept\u003d*/*\r\n\t\t\t\tContent-Type\u003dapplication/json; charset\u003dUTF-8\r\r","requestCookies":"\r\r","responseHeaders":"Date: Tue, 21 Jun 2022 10:27:08 GMT\nContent-Type: application/json; charset\u003dutf-8\nTransfer-Encoding: chunked\nConnection: keep-alive\nX-Powered-By: Express\nAccess-Control-Allow-Origin: *\nEtag: W/\"406-ut0vzoCuidvyMf8arZpMpJ6ZRDw\"\nVia: 1.1 vegur\nCache-Control: max-age\u003d14400\nCF-Cache-Status: HIT\nAge: 3611\nExpect-CT: max-age\u003d604800, report-uri\u003d\"https://report-uri.cloudflare.com/cdn-cgi/beacon/expect-ct\"\nReport-To: {\"endpoints\":[{\"url\":\"https:\\/\\/a.nel.cloudflare.com\\/report\\/v3?s\u003d59%2BsvQjewcvJ9Jq%2FnDw0f4R1Ot%2FKYOmf0jT%2FfGSJrskG3KKP6Ls0yhA14CmOFkNHsj3u8neU3tmtPSQvVhuBW9crfpXOy%2Bbv4oxNfQDI5VVrMKP1Qu%2BSkKJegg%3D%3D\"}],\"group\":\"cf-nel\",\"max_age\":604800}\nNEL: {\"success_fraction\":0,\"report_to\":\"cf-nel\",\"max_age\":604800}\nVary: Accept-Encoding\nServer: cloudflare\nCF-RAY: 71ec0cc9cf8a755e-LHR\nContent-Encoding: gzip\r","responseCookies":"\r","responseBody":"{\n    \"page\": 2,\n    \"per_page\": 6,\n    \"total\": 12,\n    \"total_pages\": 2,\n    \"data\": [\n        {\n            \"id\": 7,\n            \"email\": \"michael.lawson@reqres.in\",\n            \"first_name\": \"Michael\",\n            \"last_name\": \"Lawson\",\n            \"avatar\": \"https://reqres.in/img/faces/7-image.jpg\"\n        },\n        {\n            \"id\": 8,\n            \"email\": \"lindsay.ferguson@reqres.in\",\n            \"first_name\": \"Lindsay\",\n            \"last_name\": \"Ferguson\",\n            \"avatar\": \"https://reqres.in/img/faces/8-image.jpg\"\n        },\n        {\n            \"id\": 9,\n            \"email\": \"tobias.funke@reqres.in\",\n            \"first_name\": \"Tobias\",\n            \"last_name\": \"Funke\",\n            \"avatar\": \"https://reqres.in/img/faces/9-image.jpg\"\n        },\n        {\n            \"id\": 10,\n            \"email\": \"byron.fields@reqres.in\",\n            \"first_name\": \"Byron\",\n            \"last_name\": \"Fields\",\n            \"avatar\": \"https://reqres.in/img/faces/10-image.jpg\"\n        },\n        {\n            \"id\": 11,\n            \"email\": \"george.edwards@reqres.in\",\n            \"first_name\": \"George\",\n            \"last_name\": \"Edwards\",\n            \"avatar\": \"https://reqres.in/img/faces/11-image.jpg\"\n        },\n        {\n            \"id\": 12,\n            \"email\": \"rachel.howell@reqres.in\",\n            \"first_name\": \"Rachel\",\n            \"last_name\": \"Howell\",\n            \"avatar\": \"https://reqres.in/img/faces/12-image.jpg\"\n        }\n    ],\n    \"support\": {\n        \"url\": \"https://reqres.in/#support-heading\",\n        \"text\": \"To keep ReqRes free, contributions towards server costs are appreciated!\"\n    }\n}","statusCode":200},"precondition":false}]}],"userStory":{"id":"in.reqres.reqresinfo.UserCURDTestWithSteps","storyName":"User CURD test with steps","storyClassName":"in.reqres.reqresinfo.UserCURDTestWithSteps","path":"in.reqres.reqresinfo","type":"story"},"featureTag":{"name":"Reqresinfo/User CURD test with steps","type":"story"},"title":"3. This will if verify second data id \u003d 12","tags":[{"name":"Reqresinfo/User CURD test with steps","type":"story"}],"startTime":"2022-06-21T11:27:12.709+01:00[Europe/London]","duration":175,"testFailureCause":{"errorType":"java.lang.AssertionError","message":"expected:\u003c12\u003e but was:\u003c8\u003e","stackTrace":[{"declaringClass":"in.reqres.reqresinfo.UserCURDTestWithSteps","methodName":"test009","fileName":"UserCURDTestWithSteps.java","lineNumber":102}]},"testFailureClassname":"java.lang.AssertionError","testFailureMessage":"expected:\u003c12\u003e but was:\u003c8\u003e","testFailureSummary":"FAILURE;java.lang.AssertionError;expected:\u003c12\u003e but was:\u003c8\u003e;UserCURDTestWithSteps.java","projectKey":"","annotatedResult":"FAILURE","manual":false,"testSource":"JUnit","result":"FAILURE"}